Adisson,M
Adriana,F
Agatha,F
Alessandra,F
Alexandre,M
Alice,F
Alícia,F
Aline,F
Allana,F
Alzira,F
Amanda,F
Ana,F
Ana Beatriz,F
Ana Cecília,F
Ana Clara,F
Ana Júlia,F
Ana Laura,F
Ana Lívia,F
Ana Liz,F
Ana Luiza,F
Ana Sophia,F
Ana Vitória,F
Analu,F
Anderson,M
Andre,M
André,M
Andrea,F
Andreia,F
Anthony,M
Anthony Gabriel,M
Antonella,F
Antonia,F
Antônia,F
Antonio,M
Antônio,M
Aparecida,F
Arthur,M
Arthur Gabriel,M
Arthur Henrique,M
Arthur Miguel,M
Augusto,M
Aurora,F
Ayla,F
Beatriz,F
Benedita,F
Benedito,M
Benício,M
Benjamin,M
Bento,M
Bernardo,M
Bianca,F
Breno,M
Bruna,F
Bruno,M
Bryan,M
Caio,M
Caleb,M
Camila,F
Camilo,M
Carla,F
Carlos,M
Carlos Eduardo,M
Carol,F
Carolina,F
Catarina,F
Cauã,M
Cecília,F
Clara,F
Clarice,F
Claudia,F
Claudio,M
Clécio,M
Cristiane,F
Daiane,F
Daisy,F
Daniel,M
Daniela,F
Daniele,F
Danilo,M
Davi,M
Davi Lucas,M
Davi Lucca,M
Davi Luiz,M
Davi Miguel,M
Diego,M
Edson,M
Eduarda,F
Eduardo,M
Eliane,F
Elisa,F
Elisangela,F
Eloá,F
Elza,F
Emanuel,M
Emanuelly,F
Emilly,F
Enrico,M
Enzo,M
Enzo Gabriel,M
Enzo Miguel,M
Erick,M
Esther,F
Evandro,M
Fabiana,F
Fabio,M
Fatima,F
Felipe,M
Fernanda,F
Fernando,M
Francisca,F
Francisco,M
Gabriel,M
Gabriela,F
Gabrielly,F
Gael,M
Geovana,F
Geraldo,M
Giovanna,F
Guilherme,M
Gustavo,M
Heitor,M
Helena,F
Heloísa,F
Heloise,F
Henrique,M
Henry,M
Herbert,M
Hidalgo,M
Ian,M
Isaac,M
Isabel,F
Isabela,F
Isabella,F
Isabelly,F
Isadora,F
Isis,F
Jaqueline,F
Jeremias,M
Jessica,F
Joana,F
Joao,M
João,M
João Gabriel,M
João Guilherme,M
João Lucas,M
João Miguel,M
João Pedro,M
João Victor,M
Joaquim,M
Jorge,M
Jose,M
José,M
Josefa,F
Julia,F
Júlia,F
Juliana,F
Kaique,M
Kauê,M
Laís,F
Lara,F
Larissa,F
Laura,F
Lavínia,F
Leandro,M
Leonardo,M
Leticia,F
Letícia,F
Levi,M
Lívia,F
Liz,F
Lorena,F
Lorenzo,M
Louise,F
Luan,M
Luana,F
Lucas,M
Lucas Gabriel,M
Lucca,M
Lucia,F
Luciana,F
Luciano,M
Luis,M
Luiz,M
Luiz Felipe,M
Luiz Gustavo,M
Luiz Henrique,M
Luiz Miguel,M
Luiz Otávio,M
Luiza,F
Luna,F
Luzia,F
Maitê,F
Malu,F
Manoel,M
Manuel,M
Manuela,F
Marcelo,M
Marcia,F
Marcio,M
Marcos,M
Maria,F
Maria Alice,F
Maria Cecília,F
Maria Clara,F
Maria Eduarda,F
Maria Fernanda,F
Maria Flor,F
Maria Helena,F
Maria Heloísa,F
Maria Isis,F
Maria Júlia,F
Maria Laura,F
Maria Luiza,F
Maria Sophia,F
Maria Valentina,F
Maria Vitória,F
Maria-,F
Mariah,F
Mariana,F
Marina,F
Mario,M
Marlene,F
Marli,F
Martin,M
Mateus,M
Matheus,M
Maya,F
Melissa,F
Miguel,M
Miguel Henrique,M
Milena,F
Mirella,F
Mozés,M
Murilo,M
Nair,F
Natalia,F
Nathan,M
Nelson,M
Nicolas,M
Nicole,F
Noah,M
Oliver,M
Olívia,F
Osvaldo,M
Otávio,M
Patricia,F
Paulo,M
Pedro,M
Pedro Henrique,M
Pedro Lucas,M
Pedro Miguel,M
Pietra,F
Pietro,M
Priscila,F
Rafael,M
Rafaela,F
Raimunda,F
Raimundo,M
Raul,M
Rebeca,F
Regina,F
Renata,F
Ricardo,M
Rita,F
Roberto,M
Rodrigo,M
Rosa,F
Rosangela,F
Roseli,F
Ruan,M
Ryan,M
Sabrina,F
Samanta,F
Samuel,M
Sandra,F
Sara,F
Sarah,F
Sasha,F
Sebastiana,F
Sebastiao,M
Sergio,M
Severino,M
Sheila,F
Silvana,F
Simone,F
Sonia,F
Sonmuel,M
Sophia,F
Sophie,F
Stella,F
Sueli,F
Tania,F
Tatiane,F
Tereza,F
Terezinha,F
Theo,M
Théo,M
Thiago,M
Thomas,M
Tiago,M
Tomás,M
Valentina,F
Vanessa,F
Vera,F
Vicente,M
Victor,M
Victor Hugo,M
Vinícius,M
Vitor,M
Vitoria,F
Vitória,F
William,M
Yago,M
Yasmin,F
Yuri,M