QW5kcmUgTm9ndWVpcmEgTGVmY2FkaXRvIEFsdmFyZXM=,1979-05-16
THVjaWFubyBGbGF2aW8gRnJlaXRhcyBkZSBBbG1laWRh,1950-08-11
TWFyaWFuYSBBbmpvcyBSZWNoZQ==,1984-12-25
TWFybGkgTG9wZXMgR2FyY2lhIGRhIFNpbHZh,1953-02-22
T3N2YWxkbyBBcm9uIFJvaXpuZXIgRnJlbmtpZWw=,1954-08-10
TWFyY2VsbyBNZXRo,1957-12-26
TW9hY3lyIFBvcnRpbmhvIGRlIEFicmV1IEdvbWVz,1960-07-23
THVpcyBCZXJuYXJkbyBGcm9lcw==,1961-11-23
U2FuZHJhIE1hcmlhIENhcmRvc28gZGUgTWVuZXplcyBTaWx2YQ==,1952-09-17
TWFyaWEgSGVsZW5hIENhYnJlaXJhIFJhbW9z,1965-12-05
RWR1YXJkbyBQaXNhbmkgTWVsbG8=,1968-12-20
RGllZ28gTGljbyBNYWNoYWRv,1986-10-03
RmFicmljaW8gTWVsbG8gV2VudGVy,2004-08-17
TGVvbmFyZG8gSm9zZSBDYXJkb3NvIGRhIFNpbHZh,1975-03-22
UmljYXJkbyBNaWd1ZWwgS3VyYWlt,1973-05-29
Q2FpbyBBbGV4YW5kcmUgRWJvbGk=,1984-10-27
UnV5IFBlcmVpcmEgQ2FtaWxvIEp1bmlvcg==,1968-09-29
TWFyY2VsbyBDYXZhbGhlaXJvIGRlIFF1ZWlyb3o=,1979-04-03
UGF0cmljaWEgSGVsZW5hIExpbWEgR2Fpb3R0bw==,2012-03-27
RmVybmFuZG8gU29hcmVzIGRlIENhbWFyZ28=,1976-01-13
RGVuaXNlIEZlcm5hbmRlcyBkbyBTYW50b3M=,1967-03-30
RmVsaXBlIEFtYWRvIENlcnF1ZWlyYSBHb21lcw==,1989-09-21
QW50b25pZXR0YSBSYW1vcyBkZSBGaWd1ZWlyZWRv,1980-06-12
TGFyaXNzYSBNaXlhc2hpcm8gWWFtYXNoaXRh,1990-01-03
TWFybGVuZSBUYXZhcmVzIEJhcmJpZXJp,1937-04-23
Um9iZXJ0byBFbWlsaW8gRXN0ZWZhbQ==,1942-03-10
SnVsaWEgQ2FtYXNtaWUgVG9tbWFzaQ==,1932-05-17
TWFyY2VsbyBSdWNrZXI=,1965-05-10
TWFub2VsIEJyYW5jYW50ZQ==,1947-10-07
RGlsbWEgRmVycmVpcmEgUGVyZWlyYQ==,1976-07-09
Q2FtaWxhIGRhIENvc3RhIE1hY2hhZG8=,1988-12-30
RmVybmFuZG8gR2h1c3Nu,1978-10-23
RWRpbHNvbiBBcGFyZWNpZG8gRmVycmVpcmEgZGUgTWVuZXplcw==,1970-06-05
RGVib3JhaCBkZSBBbW9yaW0gVGhvbWF6IGRlIEFxdWlubw==,21081975
TWF1cm8gU3RhY2NoaW5pIEp1bmlvcg==,1958-02-20
UmFmYWVsIFB1b3NzbyBSb21hbmluaQ==,1975-10-07
QWxlc3NhbmRyYSBkZSBTb3V6YSBNb250ZXMgQ29ycmVpYQ==,1971-08-25
R2lvdmFubmEgZGUgQXJhdWpvIFNhbnRvcw==,2002-06-10
U2lsdmlhIEdvbWVzIE1vcmVpcmE=,1970-06-19
Q3Jpc3RpYW4gRGVhbmdlbGlzIERpbml6,1972-08-30
U2lsdmlhIENyaXN0aW5hIFZlbnR1cmluaSBNYXRyYW5nb2xv,1956-10-02
SXphYmVsIENyaXN0aW5hIGRhIENvc3RhIExpdGllcmk=,1954-06-11
Q2Fyb2xpbmEgRnJhbmNpc3MgZGUgRmlndWVpcmVkbyBNb3JlaXJh,1995-11-07
VGVzdGUgRGFzYSBTcCAtIDAy,2011-03-22
QW5hIENhcm9saW5hIENhcnZhbGhvIE1lZGFyZG9uaQ==,1985-01-11
Tmljb2xlIE1hcmlhbmUgZGUgU291emEgVG9tZQ==,1998-08-16
U2VsbWEgQWRhbW8gRmVybmFuZGVzIEx1Y2lv,1938-06-10
Tm9idWtvIE11cmFrYW1p,1942-11-24
TWF1cm8gQXBhcmVjaWRvIEdpbWVuZXogUG9udGVz,1973-03-25
RmxhdmlvIEdvbWVzIGRhIFJvY2hh,1960-05-12
TWFyY2lvIE1hcnRpbmV6,1948-03-28
Q2xhdWRpdXMgQWxtZWlkYSBEcmV3YW56,1969-12-08
TWFyaWFuYSBMYXNzbyBWZXJkZWxobw==,1984-08-20
R3JlZ29yeSBHZW5lIENsYXJr,1951-09-26
TWFyaWFuYSBWZXJzb2xhdG8=,1985-04-15
VGVzdGUgQWRtaXNzYW8gNTU1NQ==,1967-02-01
SXNhbmEgTWFyaWxpYSBSaWJlaXJv,1960-01-03
QWxleGFuZHJlIEZpb3JhbmVsaQ==,1969-06-05
THVjaWFuYSBDYWNlcmVzIENoYXJhbWl0YXJh,1978-12-10
R2VydHJ1ZGVzIEZpbGlwcGluaSBUYWJvYWRh,1947-02-25
SnVsaWEgRHVhcnRlIEJ1a2FsaWw=,2006-09-23
THVpcyBFZHVhcmRvIFRhdmFyZXMgZG9zIFNhbnRvcw==,1986-11-09
RmVybmFuZG8gZGUgQXNzaXM=,1980-06-06
U29maWEgUmliYXMgZGUgQW5nZWxl,2003-10-09
QW5lc2lhIGRlIENhcnZhbGhvIEdhc3NtYW5u,1964-08-02
SXNhYmVsYSBQZW50ZWFkbyBDYXJyYSBDYXJkb3Nv,1960-06-25
Q3Jpc3RpYW5lIE11bml6IGRlIEFyYXVqbw==,1968-02-12
Q3ludGhpYSBNYXkgSG9iYnMgUGluaG8=,1964-08-17
QW1hbmRhIFJlZ2luYSBHdXRpZXJyZXogTGliZXJhdG8=,1988-05-11
V2FsdGVyIFB1Z2xpYW5v,1948-03-06
RWR1YXJkbyBQb3ZvYQ==,1973-07-02
U2Fya2lzIERvbmVsaWFu,1952-03-04
QWxlc3NhbmRybyBNYW5saW8gUGluaGVpcm8gUXVhdHRyaW5p,1971-01-26
U29uaWEgUmVnaW5hIEhlc3MgZGUgU291emE=,1955-10-06
Uml0YSBkZSBDYXNzaWEgQmF6YW4gTWlnbGlvbGk=,1962-06-04
RWxpYW5hIFBpbmhlaXJvIGRhIFNpbHZh,1967-02-05
SnVsaWFuYSBTYW50b3MgTGlhbg==,1981-05-29
TWFyaWEgRWxpc2EgZGUgTWFuaGFlcyBGaWd1ZWlyZWRvIE51bmVz,1961-04-19
RGVsYW5hIEJlemVycmEgUm9kcmlndWVzIGRlIEFicmV1,1978-04-10
RmVybmFuZG8gSGVucmlxdWUgRGl6b3R0aQ==,1992-03-17
Sm9zZSBSb2JlcnRvIGRlIFNvdXph,1972-06-19
TW9uaWNhIExlaXRlIEdyaW5iYXVt,1964-04-14
QW5hIENyaXN0aW5hIEFuZ2VsaWNvIExvcGVz,1966-03-03
TWFyaWEgTWFybGVuZSBkZSBDYXJ2YWxobyBCdXNzYW1yYQ==,1939-11-21
U2FuZHJhIExpYSBTaW1vbg==,1962-09-24
RmxvcmEgTGVtZSBGZXJyZWlyYSBQYWR1YSBMaW1h,1928-01-07
QXJ0aHVyIEJhdGlzdGEgQ2FicmFs,2006-09-14
UGF1bG8gQ2VzYXIgU2FtcGFpbyBDdW5oYQ==,1950-02-03
U2ltb25lIEdhcmNpYSBSaWJlaXJv,1966-05-28
TWFyaWEgQ2hyaXN0aW5hIEJydW5ldHRpIEFuZHJhZGUgQ2FydmFsaG8=,1960-10-14
TWF1cmljaW8gRGVsIEJ1b25vIFJhbW9z,1986-05-28
RmVybmFuZGEgUmFtb3MgTWFydGlu,1975-10-07
TWFyaXN0ZWxhIFlhc3N1ZGEgQmVuZWRldHRpIE1vbnRlaXJv,1961-12-21
THVjaWxhaW5lIGRlIE1lbG8gU2lsdmE=,1976-02-24
Um9iZXJ0byBLbGFiaW4gTWFydGlucyBYYXZpZXI=,1968-10-04
TWFyaWEgRmVybmFuZGEgTWFyaXMgZGUgT2xpdmVpcmEgTWVuZG9uY2EgZGUgQWx2YXI=,1999-06-17
TWFyaXN0ZWxhIFlhc3N1ZGEgQmVuZWRldHRpIE1vbnRlaXJv,1961-12-21
UmVuYXRhIE1hcmlhIGRlIE1lbG8=,1982-06-01
U3VlbHkgRmVzdGEgUGVyZWlyYQ==,1952-07-18
RnJlZCBBZGVz,2002-06-17
Sm9zZSBSb2JlcnRvIEFiaWxpbw==,1964-05-08
QnJ1bm8gQmVyZ2FtaW4gUm9zc2k=,1981-08-27
TmV3dG9uIFJvY2hhIFF1YWRyb3MgQ2Fpcm8=,1962-05-05
TGF1cmEgQm9nZ2lhbiBVZW9rYSBDaW50cmE=,2012-12-06
RGFuaWVsIFBlcmVpcmEgZGEgU2lsdmE=,1976-05-24
UmVuYXRhIFR1eWNoaSBBc3NpcyBGZXJyZWlyYQ==,1978-05-09
QXJhY2VsaSBSYW1vcyBWaWNlbnRpbSBEb21pbmd1ZXM=,1978-06-19
VmFsZXJpYSBkZSBMaW1hIE1lbmV6ZXM=,1963-11-21
UHJpc2NpbGxhIE1hcnRpbnMgR3V6bWFu,1976-04-12
UmVpbm9sZCBad2Vja2Vy,1944-06-25
RW1pbGlvIFRhZGV1IE5hc3NpZiBNYXR0YXI=,1959-05-24
QW5hIENsYXVkaWEgTmF1ZmFsIEZvbnRvbGFuIEF0ZW0=,1973-07-25
QXBhcmVjaWRhIGRlIENvbnRp,1961-11-18
VGVzdGUgQWx0YSBCbyAy,2011-01-01
UmVuYXRvIEFycnVkYQ==,1974-05-18
SGFuYW1pIFNpYmVsaSBIZWdlciBLb2ppbWE=,1984-06-19
QWxpbmUgZG9zIEFuam9zIEZlcnJlaXJh,1986-05-29
Q2VjaWxpYSBSb3BwYSBHdWVycmE=,1975-12-07
VGVzdGUgQWx0YSBKYXJkaW5zIDM=,2008-02-01
TWFyaWFuYSBDb3BlbGxpIEphbm5ldHRp,1996-10-30
QW5kcmV5IEZlbHlwZSBDb3N0YQ==,1991-07-29
Sm9hbyBOZXkgSG9jaGdyZWI=,1928-12-26
Q2lybyBOYXZhamFz,1945-07-09
QWRyaWFuYSBSb3ZpZWxsbyBHYXJiaW5pIFhhdmllcg==,1974-01-24
UmVuYXRhIEphbmRpcmEgUGVyZWlyYSBDaW1pbm8gUm9kcmlndWVz,1962-01-14
TWFyaWxpYSBHYWJyaWVsYSBCYXN0b24gZGUgVG9sZWRvIENvY2hyYW5l,1948-05-31
QnJ1bm8gUm90dW5kbyBWaWxsYXIgR2FnbGlhcmRp,1977-11-12
R3VzdGF2byBOdW5lcyBXYWtpbQ==,1960-04-20
TGVkYSBHb21lcyBGZXJyZWlyYQ==,1966-03-10
QW5hIENyaXN0aW5hIEF5dWIgQmFjZWxsYXI=,1977-03-31
TWFyaWEgU3RlbGxhIEF5cmVzIFlhc3N1ZGE=,1938-05-02
SHl1bmcgU2lrIENob2k=,1967-09-16
THlkaWEgTm9ybWEgTW9udGVpcm8gZGEgQ3J1eg==,1933-04-29
QW1hbmRhIENoYWt1ciBBYmR1Y2ggU3RlYWdhbGw=,1983-01-23
Um9zaW1laXJlIEFsdmVzIGRlIE1lZGVpcm9z,1973-12-08
TWFyaW5hIFN0ZWZhbmkgQ2FybGluaQ==,1982-07-07
TmVpZGUgVG95b2tvIFlhbWFzaGlybyBNYXRzdW1vdG8=,1953-12-17
UmVuYXRhIGRlIENhc3NpYSBHb21lcyBQaWVyaQ==,1980-07-25
TWFyY29zIE1hcnRpbnMgZGUgQ2FtYXJnbw==,1973-07-20
RGFuaWVsZSBUb3JjaGlhIE1vbnRlaXJvIFRlcnJhIEtoZXJsYWtpYW4=,1973-12-04
THVpZ2kgSGVucmlxdWUgQ2FydmFsaG8gZGUgVG9sZWRv,2000-03-01
QmFyYmFyYSBBZ2VybWFubiBNZWxtYW4=,1972-05-22
TWFyY28gQW50b25pbyBSb2RyaWd1ZXMgUGVyZWlyYQ==,1969-02-10
U2lsdmFubyBMYWdv,1977-05-23
Q2xhdWRpYSBBbHZlcyBEaWFzIExhY29ydGU=,1963-07-11
U2hlaWxhIEJlbmV0dGkgVGhhbWVyIEJ1dHJvcw==,1972-09-12
QXJuYWxkbyBDdXJ2ZWxsbw==,1948-09-03
TWFyY2VsbyBkbyBDYXJtbyBDb2VsaG8=,1975-08-06
TWFyaWEgZGFzIERvcmVzIFRlbm9yaW8gTWFpYQ==,1931-12-10
TWFyY2lvIFBvbXBlbyBDYW1wb3MgRnJlaXJl,1965-10-11
SnVsaWFuZSBNZW5kZXMgQW1hdHRp,1977-01-22
RmFiaW8gR3VzbWFvIFRob21heiBkZSBBcXVpbm8=,1970-10-11
VmVyYSBNYXJpbmEgUmliZWlybyBkYSBTaWx2YQ==,1947-09-21
Um9iZXJ0byBGZXJyZWlyYSBkZSBNb3VyYSBCcmFnYQ==,1952-08-02
VmFsZXJpYSBSaWJlaXJvIExvcGVz,1969-01-11
Sm9zZSBSb2JlcnRvIGRlIFNvdXph,1959-11-03
VGVzdGUgQWx0YSBFZG5laWEgZGUgSmVzdXMgQXJhZ2Fv,1974-06-12
QW5hIENyaXN0aW5hIFBpbWVudGVsIGRvcyBTYW50b3MgU2lsdmE=,1966-09-17
RWx0b24gUmFtb3MgTW9yYWVz,1980-03-25
Um9kcmlnbyBFaXJhcyBCYXJodW0=,2001-02-14
VGhlcmV6aW5oYSBNYWx1ZiBDaGFtbWE=,1929-02-14
Um9kcmlnbyBBYmJ1ZCBQZW50ZWFkbw==,1991-02-10
TWFub24gRWxlb25vcmEgZGUgTGFkYWxhcmRvIE1hcnRpbnM=,1983-06-20
QmVhdHJpeiBIZWxlbmEgZGUgTWlyYW5kYQ==,1965-07-28
TWVsaXNzYSBUYWtlbmFrYSBNZWRlaXJvcw==,2007-02-17
QWxlc3NhbmRyYSBTYW5jaGVzIEFyb3VjYQ==,1982-10-05
Q2FpbyBGZWxpcGUgRGlvZ28=,1979-04-02
TWFyY2lhIE1vcmVpcmEgVmFsZW50aW0=,1954-04-11
SmFtZXMgQSBKYW1lcyBKcg==,1962-04-10
UmljYXJkbyBFc3Bpbm9sYSBWaXNjbw==,1966-07-18
Q2FyaW5hIFNheXVyaSBDaGluZW0gZGEgQ29zdGE=,1973-01-28
TWFyaWEgTWFnYWxpIExpc2JvYSBNYWxoZWlyb3M=,1928-03-05
R2l1bGlhbmEgZGUgRnJlaXRhcyBGb25nYXJv,1975-01-01
THVjaWFuZSBIaXJvdGEgU2Fpa2k=,1978-07-10
Sm9yZ2UgQ2FybG9zIEZyYW5jaXNjbyBTYWxvbWFv,1941-08-09
TWFyaWFuYSBCYXJhIFphbm90dG8gRXZlbHlu,1979-10-06
TGFpcyBHb21lcyBkYSBSb2NoYQ==,1989-11-29
RGF2aWQgQ2FzaW1pcm8gTW9yZWlyYQ==,1943-08-21
QWRyaWFuYSBBbHZhcmVuZ2EgZGUgU291emE=,1969-06-12
RGFuaWVsIFphbmV0dGkgQmFyYm9zYSBQaW50byBkYSBTaWx2YQ==,1997-12-04
Um9zYW5hIENyaXN0aW5hIFBvbGkgQ2FzYWdyYW5kZSBHYXJjaWE=,1962-08-20
RmxhdmlhIFNhbnRhbmEgQ2FydmFsaG8=,1981-07-11
SW5kaXJhIFBlZHJvem8=,1980-06-16
UmFxdWVsIEJhcmJvc2EgUGFycGluZWxsZSBDb3JyZWE=,1969-02-13
Q2FpbyBBbXVyaSBWYXJnYQ==,1977-04-16
Um9iZXJ0YSBWaWVpcmEgUGFsYWRpbmkgTm9ndWVpcmEgU2ltb2Vz,1969-07-11
Q3Jpc3RpbmEgTWVtZSBQYWl2YQ==,1963-01-26
SGFtaWx0b24gSm9zZSBCYXB0aXN0YSBkYSBDcnV6,1964-03-10
RWR1YXJkbyBNYW51ZWwgUm9zYSBNYXJjYWxv,1946-10-05
WWFuYSBNaWNoYWVsYSBCYWJiZQ==,1976-07-28
SXNhYmVsbGEgQWx0aWVyaSBIb3JzdA==,2002-06-10
QW50b25lbGxhIERpbGlsbG8=,1969-05-07
TWFyY2VsbyBNb3Jp,1977-06-02
TWFyaWEgR2FicmllbGEgUGFsbWEgZGUgQWxtZWlkYQ==,2007-03-07
Um9iZXJ0YSBGYWxjaQ==,1978-05-11
QW5uYSBNYXJpYSBDaW1pcnJvIEZyYW5jbyBDZXNhcg==,1959-04-12
RGVuaXNlIEdpcmF1ZG9uIGRlIEFyYXVqbw==,1954-06-06
RmVybmFuZGEgUmliZWlybyBNaWwgSG9tZW5zIENvc3Rh,1959-02-22
Q2xhdWRpYSBFZGluYSBCb3J0b2xvbg==,1979-06-16
VmFuZGEgTWFlZGE=,1970-12-02