Alves,x
Monteiro,x
Novaes,x
Mendes,x
Barros,x
Freitas,x
Barbosa,x
Pinto,x
Moura,x
Cavalcanti,x
Dias,x
Castro,x
Campos,x
Cardoso,x
Silva,x
Souza,x
Costa,x
Santos,x
Oliveira,x
Pereira,x
Rodrigues,x
Almeida,x
Nascimento,x
Lima,x
Araújo,x
Fernandes,x
Carvalho,x
Gomes,x
Martins,x
Rocha,x
Ribeiro,x
Rezende,x
Sales,x
Peixoto,x
Fogaça,x
Porto,x
Duarte,x
Moraes,x
Ramos,x
Pereira,x
Ferreira,x
Silveira,x
Moreira,x
Teixeira,x
Caldeira,x
Vieira,x
Nogueira,x
da Costa,x
da Rocha,x
da Cruz,x
da Cunha,x
da Mata,x
da Rosa,x
da Mota,x
da Paz,x
da Luz,x
da Conceição,x
das Neves,x
Fernandes,x
Gonçalves,x
Rodrigues,x
Martins,x
Lopes,x
Gomes,x
Mendes,x
Nunes,x
Carvalho,x
Melo,x
Cardoso,x
Pires,x
Jesus,x
Aragão,x
Viana,x
Farias,x
Nicolosi,x